[{"id_user":1,"first_name":"Diarmid","last_name":"Brunsen","email":"dbrunsen0@state.gov","password":"eKd8TPZQY","account":[{"id_account":1,"iban":"LU87 800Y SHGE WUIR UBHI","saldo":861405.13},{"id_account":2,"iban":"BG10 XJBH 5706 12UW 3DOX RO","saldo":614909.68},{"id_account":3,"iban":"PS29 BPSH XFUX LXX2 VIUA JVUD QLA2 C","saldo":824896.43}]},
{"id_user":2,"first_name":"Chance","last_name":"Rebert","email":"crebert1@liveinternet.ru","password":"e4DSp6vCx43k","account":[{"id_account":1,"iban":"VG45 KRPO 9866 6561 0190 0527","saldo":418224.94},{"id_account":2,"iban":"RO95 USEK 0A1L B43R CLR1 RJZ6","saldo":893804.6}]},
{"id_user":3,"first_name":"Bernete","last_name":"Doree","email":"bdoree2@example.com","password":"nHSQXa7N9x","account":[{"id_account":1,"iban":"IE27 FYKU 3051 6490 4587 07","saldo":317122.46},{"id_account":2,"iban":"ES57 1685 3934 2318 8997 5080","saldo":588346.48}]},
{"id_user":4,"first_name":"Nevil","last_name":"Taffrey","email":"ntaffrey3@wikispaces.com","password":"9Dl3kX","account":[{"id_account":1,"iban":"FR65 9258 4088 117Y DSHW GC0Z 119","saldo":953605.54}]},
{"id_user":5,"first_name":"Emilia","last_name":"Renton","email":"erenton4@dot.gov","password":"PgmOWYJsSYc","account":[{"id_account":1,"iban":"GE88 PH06 8654 8142 9762 39","saldo":543082.46}]},
{"id_user":6,"first_name":"Andonis","last_name":"Cawthry","email":"acawthry5@imdb.com","password":"Ry2Eln","account":[{"id_account":1,"iban":"AD35 7870 5503 GWVE 6VDD R4FR","saldo":172102.6},{"id_account":2,"iban":"BG70 ZCMR 4429 159J UCEA FH","saldo":328256.27},{"id_account":3,"iban":"FR08 9400 6806 73NJ MIYP LMHR S47","saldo":296349.19}]},
{"id_user":7,"first_name":"Brad","last_name":"Glanz","email":"bglanz6@reuters.com","password":"KYCSlTZ2Aj","account":[{"id_account":1,"iban":"VG56 GGIP 4768 9493 0502 7857","saldo":59843.23},{"id_account":2,"iban":"PT70 9641 2063 7842 2299 1188 8","saldo":22537.43},{"id_account":3,"iban":"LI16 8886 8BDK PNJ3 13BE C","saldo":694976.63},{"id_account":4,"iban":"FR74 6615 7764 00D8 WQYX YQZQ G31","saldo":294174.52},{"id_account":5,"iban":"VG51 NMWK 4627 3134 6394 0878","saldo":898093.47}]},
{"id_user":8,"first_name":"Solomon","last_name":"Asplin","email":"sasplin7@addtoany.com","password":"xNjBvR6","account":[{"id_account":1,"iban":"FR84 5848 8857 94RT I2BI MZ8Z 837","saldo":164976.4},{"id_account":2,"iban":"FR81 5799 2493 72BJ KQMB XY58 A74","saldo":639538.81}]},
{"id_user":9,"first_name":"Wainwright","last_name":"Shiel","email":"wshiel8@51.la","password":"9N2BU5","account":[{"id_account":1,"iban":"NO19 3546 3232 581","saldo":355080.7}]},
{"id_user":10,"first_name":"Chastity","last_name":"Pistol","email":"cpistol9@nyu.edu","password":"siDpLRFmma5g","account":[{"id_account":1,"iban":"FO93 5621 2065 7114 22","saldo":413207.02}]}]